*** Started at: Mon Jun 19 22:24:57 PDT 2017 on fire-12-04 ***
==> RHF <==

ResourceList:
  CPU threads:  16
  GPU contexts:  8
  GPU context details:
  N  ID                 Name  CC  CPU Buffer  GPU Buffer
  0   0      GeForce GTX 970 5.2        1024        1024
  1   1      GeForce GTX 970 5.2        1024        1024
  2   2      GeForce GTX 970 5.2        1024        1024
  3   3      GeForce GTX 970 5.2        1024        1024
  4   4      GeForce GTX 970 5.2        1024        1024
  5   5      GeForce GTX 970 5.2        1024        1024
  6   6      GeForce GTX 970 5.2        1024        1024
  7   7      GeForce GTX 970 5.2        1024        1024

Molecule: crambin
  Natom        =         642
  Charge       =       0.000
  Multiplicity =       1.000

Basis: 6-31g
  nao     =  3597
  ncart   =  3597
  nprim   =  5910
  nshell  =  2277
  natom   =   642
  pure?   =    No
  max L   =     1

Basis: cc-pvdz-minao
  nao     =  1974
  ncart   =  1974
  nprim   =  8634
  nshell  =  1308
  natom   =   642
  pure?   =   Yes
  max L   =     1

Nuclear Repulsion Energy =   1.7147943196852232E+05

Integral Thresholds:
  Threshold PQ =   1.000E-14
  Threshold DP =   1.000E-06
  Threshold SP =   1.000E-14

PairList:
  symm? =         Yes
  thre  =   1.000E-14
  npair =     1107824

One-Electron Integrals:

Canonical Orthogonalization:
  Threshold =   1.000E-06
  Nmo       =        3597
  Ndiscard  =           0

SAD Guess:

DIIS:
  Max Vectors =     6

Orbital Spaces:
  Nocc = 1260
  Nvir = 2337

Convergence Options:
  Max Iterations =          50
  E Convergence  =   1.000E-06
  G Convergence  =   1.000E-05

RHF Iterations:

Iter:                   Energy          dE          dG
   0:  -1.7915616816739916E+04  -1.792E+04   9.334E-01
   1:  -1.7989778628578155E+04  -7.416E+01   4.643E-02
   2:  -1.7993761356894422E+04  -3.983E+00   3.497E-02
   3:  -1.7996535397126583E+04  -2.774E+00   9.710E-03
   4:  -1.7996638851015421E+04  -1.035E-01   2.525E-03
   5:  -1.7996653367011815E+04  -1.452E-02   1.590E-03
   6:  -1.7996655661799701E+04  -2.295E-03   6.697E-04
   7:  -1.7996656184192194E+04  -5.224E-04   2.334E-04
   8:  -1.7996656277910130E+04  -9.372E-05   8.490E-05
   9:  -1.7996656291132560E+04  -1.322E-05   3.721E-05
  10:  -1.7996656293958589E+04  -2.826E-06   1.046E-05
  11:  -1.7996656294175609E+04  -2.170E-07   5.358E-06

RHF Converged

RHF Energy =  -1.7996656294175609E+04

Tensor: I
  Ndim  = 1
  Size  = 1260
  Shape = (1260)

  Data:

      0  -91.9857349
      1  -91.9827637
      2  -91.9811343
      3  -91.9808951
      4  -91.9590248
      5  -91.9541263
      6  -20.6275700
      7  -20.6181025
      8  -20.6089809
      9  -20.6087911
     10  -20.6078456
     11  -20.5993610
     12  -20.5978061
     13  -20.5936303
     14  -20.5929137
     15  -20.5895328
     16  -20.5881298
     17  -20.5850433
     18  -20.5820743
     19  -20.5810971
     20  -20.5774981
     21  -20.5772505
     22  -20.5743966
     23  -20.5742538
     24  -20.5737541
     25  -20.5717810
     26  -20.5686713
     27  -20.5684785
     28  -20.5678812
     29  -20.5648090
     30  -20.5640507
     31  -20.5629206
     32  -20.5624067
     33  -20.5555493
     34  -20.5543126
     35  -20.5526575
     36  -20.5524409
     37  -20.5512661
     38  -20.5496532
     39  -20.5488615
     40  -20.5483886
     41  -20.5478184
     42  -20.5465644
     43  -20.5419206
     44  -20.5390027
     45  -20.5369728
     46  -20.5340275
     47  -20.5311132
     48  -20.5293377
     49  -20.5247663
     50  -20.5225951
     51  -20.5219753
     52  -20.5174655
     53  -20.5162784
     54  -20.5071753
     55  -20.5066108
     56  -20.5051660
     57  -20.5038885
     58  -20.5014580
     59  -20.5010330
     60  -20.4998371
     61  -20.4990503
     62  -20.4891328
     63  -20.4871965
     64  -20.4761722
     65  -20.4617871
     66  -20.4587327
     67  -20.4398199
     68  -20.3921678
     69  -20.3642799
     70  -15.7383645
     71  -15.6983843
     72  -15.6717414
     73  -15.6716583
     74  -15.6683381
     75  -15.6661807
     76  -15.6598633
     77  -15.6587531
     78  -15.6576729
     79  -15.6563561
     80  -15.6547913
     81  -15.6454803
     82  -15.6418772
     83  -15.6356235
     84  -15.6328459
     85  -15.6275315
     86  -15.6267525
     87  -15.6236548
     88  -15.6229610
     89  -15.6225081
     90  -15.6211652
     91  -15.6196973
     92  -15.6175358
     93  -15.6145659
     94  -15.6126314
     95  -15.6124339
     96  -15.6117996
     97  -15.6115407
     98  -15.6112113
     99  -15.6092608
    100  -15.6054553
    101  -15.6049723
    102  -15.6047458
    103  -15.6034615
    104  -15.6033217
    105  -15.5986534
    106  -15.5963912
    107  -15.5921071
    108  -15.5912839
    109  -15.5912519
    110  -15.5898351
    111  -15.5881080
    112  -15.5859443
    113  -15.5849997
    114  -15.5797581
    115  -15.5797187
    116  -15.5796212
    117  -15.5661073
    118  -15.5656109
    119  -15.5630324
    120  -15.5547749
    121  -15.5532792
    122  -15.5461761
    123  -15.5319142
    124  -15.5305177
    125  -11.4887844
    126  -11.4488188
    127  -11.4484703
    128  -11.4389133
    129  -11.4324017
    130  -11.4318362
    131  -11.4312155
    132  -11.4306859
    133  -11.4296295
    134  -11.4214237
    135  -11.4189193
    136  -11.4132932
    137  -11.4116432
    138  -11.4091891
    139  -11.4063525
    140  -11.4057551
    141  -11.4042190
    142  -11.4035986
    143  -11.4021044
    144  -11.3995816
    145  -11.3982023
    146  -11.3976590
    147  -11.3953862
    148  -11.3947732
    149  -11.3893536
    150  -11.3875102
    151  -11.3853210
    152  -11.3842594
    153  -11.3839920
    154  -11.3831600
    155  -11.3822119
    156  -11.3820571
    157  -11.3763202
    158  -11.3709122
    159  -11.3707042
    160  -11.3706717
    161  -11.3667874
    162  -11.3662527
    163  -11.3641752
    164  -11.3618203
    165  -11.3613098
    166  -11.3592976
    167  -11.3588214
    168  -11.3574495
    169  -11.3570574
    170  -11.3507216
    171  -11.3503543
    172  -11.3465071
    173  -11.3460771
    174  -11.3459077
    175  -11.3449849
    176  -11.3427896
    177  -11.3415750
    178  -11.3414867
    179  -11.3414338
    180  -11.3407025
    181  -11.3406212
    182  -11.3403617
    183  -11.3390811
    184  -11.3328367
    185  -11.3322386
    186  -11.3320129
    187  -11.3306943
    188  -11.3271417
    189  -11.3264647
    190  -11.3254538
    191  -11.3243728
    192  -11.3240857
    193  -11.3240052
    194  -11.3229970
    195  -11.3217620
    196  -11.3206856
    197  -11.3196972
    198  -11.3196029
    199  -11.3192976
    200  -11.3192470
    201  -11.3166523
    202  -11.3163108
    203  -11.3149527
    204  -11.3147393
    205  -11.3135939
    206  -11.3121395
    207  -11.3106730
    208  -11.3105320
    209  -11.3094619
    210  -11.3092252
    211  -11.3077352
    212  -11.3070102
    213  -11.3059184
    214  -11.3044948
    215  -11.3044736
    216  -11.3035926
    217  -11.3023204
    218  -11.3019996
    219  -11.3010097
    220  -11.2997763
    221  -11.2991272
    222  -11.2958448
    223  -11.2943024
    224  -11.2940207
    225  -11.2925021
    226  -11.2919498
    227  -11.2917058
    228  -11.2911359
    229  -11.2869341
    230  -11.2853899
    231  -11.2849304
    232  -11.2841439
    233  -11.2828894
    234  -11.2812311
    235  -11.2806754
    236  -11.2799065
    237  -11.2795769
    238  -11.2789943
    239  -11.2789735
    240  -11.2781671
    241  -11.2776922
    242  -11.2775739
    243  -11.2773738
    244  -11.2773133
    245  -11.2758136
    246  -11.2753478
    247  -11.2739813
    248  -11.2734878
    249  -11.2722747
    250  -11.2717522
    251  -11.2715452
    252  -11.2715416
    253  -11.2712379
    254  -11.2695850
    255  -11.2685312
    256  -11.2674419
    257  -11.2664483
    258  -11.2660423
    259  -11.2658851
    260  -11.2658500
    261  -11.2641440
    262  -11.2636499
    263  -11.2631427
    264  -11.2627225
    265  -11.2626226
    266  -11.2624414
    267  -11.2623195
    268  -11.2621996
    269  -11.2621731
    270  -11.2616832
    271  -11.2595361
    272  -11.2589717
    273  -11.2574735
    274  -11.2565662
    275  -11.2565492
    276  -11.2560352
    277  -11.2540257
    278  -11.2530674
    279  -11.2520492
    280  -11.2514188
    281  -11.2504440
    282  -11.2496999
    283  -11.2470598
    284  -11.2462548
    285  -11.2450639
    286  -11.2445416
    287  -11.2427334
    288  -11.2425882
    289  -11.2425156
    290  -11.2423568
    291  -11.2422173
    292  -11.2410960
    293  -11.2361345
    294  -11.2361142
    295  -11.2356911
    296  -11.2345359
    297  -11.2337482
    298  -11.2329623
    299  -11.2312144
    300  -11.2306572
    301  -11.2304934
    302  -11.2297034
    303  -11.2291657
    304  -11.2274764
    305  -11.2273815
    306  -11.2262677
    307  -11.2245805
    308  -11.2242272
    309  -11.2219701
    310  -11.2191605
    311  -11.2184100
    312  -11.2180085
    313  -11.2172359
    314  -11.2140781
    315  -11.2122919
    316  -11.2089204
    317  -11.2062870
    318  -11.2058213
    319  -11.2006053
    320  -11.1989892
    321  -11.1950834
    322  -11.1881722
    323  -11.1846125
    324  -11.1814652
    325  -11.1763808
    326  -11.1488098
    327   -9.0074035
    328   -9.0045194
    329   -9.0037298
    330   -9.0023178
    331   -8.9822892
    332   -8.9774111
    333   -6.6893219
    334   -6.6863883
    335   -6.6863183
    336   -6.6857161
    337   -6.6842045
    338   -6.6835276
    339   -6.6833140
    340   -6.6824703
    341   -6.6810942
    342   -6.6806883
    343   -6.6798217
    344   -6.6783376
    345   -6.6644749
    346   -6.6611072
    347   -6.6592809
    348   -6.6584546
    349   -6.6559910
    350   -6.6532195
    351   -1.4793269
    352   -1.4788354
    353   -1.4707288
    354   -1.4559943
    355   -1.4554778
    356   -1.4531696
    357   -1.4505553
    358   -1.4498474
    359   -1.4467335
    360   -1.4454855
    361   -1.4446607
    362   -1.4425833
    363   -1.4352105
    364   -1.4329877
    365   -1.4324990
    366   -1.4311681
    367   -1.4266111
    368   -1.4255842
    369   -1.4253789
    370   -1.4246686
    371   -1.4225830
    372   -1.4217676
    373   -1.4213847
    374   -1.4204274
    375   -1.4175052
    376   -1.4171706
    377   -1.4159521
    378   -1.4143400
    379   -1.4142715
    380   -1.4122632
    381   -1.4110973
    382   -1.4066289
    383   -1.4052431
    384   -1.4037823
    385   -1.4034693
    386   -1.3985631
    387   -1.3964810
    388   -1.3903308
    389   -1.3874747
    390   -1.3865080
    391   -1.3862244
    392   -1.3848238
    393   -1.3842838
    394   -1.3824758
    395   -1.3821582
    396   -1.3786640
    397   -1.3781294
    398   -1.3774967
    399   -1.3761958
    400   -1.3760952
    401   -1.3713073
    402   -1.3710238
    403   -1.3703137
    404   -1.3693274
    405   -1.3692531
    406   -1.3661794
    407   -1.3651945
    408   -1.3633235
    409   -1.3589617
    410   -1.3584914
    411   -1.3540527
    412   -1.3415781
    413   -1.3329795
    414   -1.3318114
    415   -1.3281827
    416   -1.3275956
    417   -1.3157907
    418   -1.3096109
    419   -1.3047461
    420   -1.3040941
    421   -1.2975877
    422   -1.2952449
    423   -1.2902777
    424   -1.2897151
    425   -1.2830040
    426   -1.2827516
    427   -1.2811665
    428   -1.2793216
    429   -1.2786360
    430   -1.2767333
    431   -1.2741061
    432   -1.2740777
    433   -1.2740317
    434   -1.2735970
    435   -1.2707520
    436   -1.2692191
    437   -1.2679564
    438   -1.2678411
    439   -1.2669934
    440   -1.2626390
    441   -1.2614069
    442   -1.2612906
    443   -1.2608685
    444   -1.2582120
    445   -1.2557282
    446   -1.2551754
    447   -1.2520272
    448   -1.2493476
    449   -1.2465502
    450   -1.2463997
    451   -1.2458619
    452   -1.2441442
    453   -1.2421824
    454   -1.2409200
    455   -1.2393657
    456   -1.2369070
    457   -1.2352732
    458   -1.2306506
    459   -1.2246796
    460   -1.2235566
    461   -1.2210758
    462   -1.2193190
    463   -1.2157036
    464   -1.2142767
    465   -1.2097835
    466   -1.2021624
    467   -1.1982409
    468   -1.1936341
    469   -1.1914517
    470   -1.1709437
    471   -1.1685135
    472   -1.1567736
    473   -1.1543173
    474   -1.1532827
    475   -1.1494949
    476   -1.1488965
    477   -1.1474573
    478   -1.1467725
    479   -1.1382057
    480   -1.1310540
    481   -1.1258745
    482   -1.1235683
    483   -1.1203900
    484   -1.1144851
    485   -1.1141728
    486   -1.1117828
    487   -1.1103949
    488   -1.1098685
    489   -1.1073742
    490   -1.1054830
    491   -1.1048805
    492   -1.0975509
    493   -1.0958212
    494   -1.0954401
    495   -1.0920802
    496   -1.0915595
    497   -1.0912353
    498   -1.0900038
    499   -1.0868337
    500   -1.0848514
    501   -1.0834168
    502   -1.0831494
    503   -1.0825314
    504   -1.0763686
    505   -1.0757130
    506   -1.0722982
    507   -1.0716729
    508   -1.0703932
    509   -1.0631361
    510   -1.0591239
    511   -1.0524508
    512   -1.0491243
    513   -1.0485823
    514   -1.0483854
    515   -1.0434152
    516   -1.0409392
    517   -1.0395945
    518   -1.0390472
    519   -1.0337731
    520   -1.0315318
    521   -1.0302100
    522   -1.0294683
    523   -1.0293225
    524   -1.0291580
    525   -1.0263277
    526   -1.0241107
    527   -1.0238949
    528   -1.0223823
    529   -1.0221975
    530   -1.0208092
    531   -1.0154390
    532   -1.0148542
    533   -1.0132511
    534   -1.0071655
    535   -1.0003222
    536   -0.9997505
    537   -0.9987884
    538   -0.9962968
    539   -0.9959343
    540   -0.9947655
    541   -0.9933293
    542   -0.9927974
    543   -0.9914081
    544   -0.9910174
    545   -0.9876226
    546   -0.9833446
    547   -0.9820515
    548   -0.9758410
    549   -0.9715412
    550   -0.9699702
    551   -0.9657821
    552   -0.9636143
    553   -0.9618672
    554   -0.9595740
    555   -0.9592569
    556   -0.9569811
    557   -0.9489895
    558   -0.9484449
    559   -0.9462726
    560   -0.9453907
    561   -0.9431627
    562   -0.9412846
    563   -0.9406350
    564   -0.9388541
    565   -0.9343928
    566   -0.9331832
    567   -0.9326490
    568   -0.9324893
    569   -0.9279342
    570   -0.9228070
    571   -0.9212650
    572   -0.9190576
    573   -0.9189321
    574   -0.9185202
    575   -0.9161173
    576   -0.9061927
    577   -0.9059937
    578   -0.9055343
    579   -0.9016926
    580   -0.9014754
    581   -0.9011469
    582   -0.8990381
    583   -0.8983977
    584   -0.8966206
    585   -0.8956981
    586   -0.8907130
    587   -0.8898210
    588   -0.8888531
    589   -0.8835103
    590   -0.8830409
    591   -0.8784374
    592   -0.8777680
    593   -0.8761899
    594   -0.8740709
    595   -0.8717765
    596   -0.8710808
    597   -0.8699988
    598   -0.8677410
    599   -0.8671055
    600   -0.8664638
    601   -0.8623536
    602   -0.8607317
    603   -0.8589076
    604   -0.8586725
    605   -0.8583327
    606   -0.8578526
    607   -0.8573904
    608   -0.8566206
    609   -0.8549972
    610   -0.8500495
    611   -0.8490869
    612   -0.8486214
    613   -0.8474028
    614   -0.8464812
    615   -0.8457104
    616   -0.8451274
    617   -0.8434191
    618   -0.8428415
    619   -0.8412660
    620   -0.8401877
    621   -0.8387180
    622   -0.8361781
    623   -0.8344965
    624   -0.8331015
    625   -0.8329669
    626   -0.8305352
    627   -0.8290118
    628   -0.8284569
    629   -0.8272993
    630   -0.8270127
    631   -0.8259941
    632   -0.8254445
    633   -0.8241416
    634   -0.8226022
    635   -0.8212507
    636   -0.8204140
    637   -0.8193995
    638   -0.8174429
    639   -0.8169051
    640   -0.8168692
    641   -0.8160371
    642   -0.8152850
    643   -0.8138485
    644   -0.8135150
    645   -0.8130118
    646   -0.8125495
    647   -0.8086023
    648   -0.8076816
    649   -0.8040071
    650   -0.8038204
    651   -0.8037341
    652   -0.8009906
    653   -0.7994959
    654   -0.7986379
    655   -0.7986177
    656   -0.7977443
    657   -0.7967023
    658   -0.7957998
    659   -0.7955313
    660   -0.7954616
    661   -0.7932013
    662   -0.7914700
    663   -0.7913694
    664   -0.7906209
    665   -0.7838574
    666   -0.7832806
    667   -0.7814645
    668   -0.7777896
    669   -0.7776485
    670   -0.7772150
    671   -0.7769169
    672   -0.7758411
    673   -0.7738922
    674   -0.7726111
    675   -0.7723516
    676   -0.7716958
    677   -0.7703396
    678   -0.7696702
    679   -0.7692786
    680   -0.7689492
    681   -0.7650937
    682   -0.7641680
    683   -0.7633126
    684   -0.7617198
    685   -0.7594054
    686   -0.7581629
    687   -0.7577827
    688   -0.7569393
    689   -0.7560716
    690   -0.7542393
    691   -0.7531231
    692   -0.7525980
    693   -0.7521130
    694   -0.7494504
    695   -0.7483481
    696   -0.7480737
    697   -0.7469042
    698   -0.7456345
    699   -0.7442118
    700   -0.7429643
    701   -0.7417343
    702   -0.7411242
    703   -0.7382528
    704   -0.7381881
    705   -0.7376391
    706   -0.7362343
    707   -0.7348124
    708   -0.7339171
    709   -0.7328795
    710   -0.7308797
    711   -0.7292788
    712   -0.7267110
    713   -0.7263711
    714   -0.7252076
    715   -0.7244162
    716   -0.7237440
    717   -0.7220054
    718   -0.7204749
    719   -0.7181012
    720   -0.7176757
    721   -0.7166160
    722   -0.7153996
    723   -0.7152425
    724   -0.7146090
    725   -0.7132220
    726   -0.7103634
    727   -0.7088981
    728   -0.7081938
    729   -0.7074129
    730   -0.7056365
    731   -0.7052671
    732   -0.7039621
    733   -0.7033670
    734   -0.7019360
    735   -0.7001495
    736   -0.6994745
    737   -0.6988320
    738   -0.6975551
    739   -0.6968257
    740   -0.6965019
    741   -0.6958356
    742   -0.6947781
    743   -0.6936623
    744   -0.6927474
    745   -0.6923975
    746   -0.6920329
    747   -0.6903847
    748   -0.6902966
    749   -0.6891206
    750   -0.6878255
    751   -0.6874202
    752   -0.6856289
    753   -0.6848569
    754   -0.6846149
    755   -0.6839579
    756   -0.6824523
    757   -0.6812241
    758   -0.6806981
    759   -0.6798280
    760   -0.6792720
    761   -0.6788705
    762   -0.6779047
    763   -0.6769854
    764   -0.6763896
    765   -0.6747820
    766   -0.6743116
    767   -0.6740337
    768   -0.6735240
    769   -0.6723122
    770   -0.6707731
    771   -0.6699617
    772   -0.6693449
    773   -0.6690120
    774   -0.6684795
    775   -0.6680192
    776   -0.6672408
    777   -0.6666891
    778   -0.6654943
    779   -0.6648291
    780   -0.6641367
    781   -0.6635591
    782   -0.6624584
    783   -0.6619934
    784   -0.6615018
    785   -0.6610390
    786   -0.6606176
    787   -0.6602582
    788   -0.6588764
    789   -0.6588397
    790   -0.6572022
    791   -0.6561874
    792   -0.6550193
    793   -0.6540793
    794   -0.6530552
    795   -0.6522469
    796   -0.6520929
    797   -0.6515474
    798   -0.6496055
    799   -0.6485548
    800   -0.6482736
    801   -0.6479097
    802   -0.6474196
    803   -0.6468635
    804   -0.6461764
    805   -0.6452607
    806   -0.6450374
    807   -0.6443903
    808   -0.6439090
    809   -0.6433825
    810   -0.6431494
    811   -0.6421892
    812   -0.6419299
    813   -0.6410342
    814   -0.6405167
    815   -0.6397266
    816   -0.6393363
    817   -0.6388273
    818   -0.6381158
    819   -0.6371079
    820   -0.6368196
    821   -0.6360820
    822   -0.6350158
    823   -0.6347591
    824   -0.6338747
    825   -0.6332169
    826   -0.6328953
    827   -0.6324185
    828   -0.6321372
    829   -0.6315940
    830   -0.6308727
    831   -0.6297544
    832   -0.6292844
    833   -0.6289702
    834   -0.6283984
    835   -0.6274768
    836   -0.6273425
    837   -0.6267559
    838   -0.6261882
    839   -0.6256681
    840   -0.6253013
    841   -0.6245770
    842   -0.6237264
    843   -0.6233598
    844   -0.6231614
    845   -0.6224737
    846   -0.6223151
    847   -0.6217548
    848   -0.6212068
    849   -0.6209328
    850   -0.6205794
    851   -0.6200770
    852   -0.6198677
    853   -0.6188740
    854   -0.6179286
    855   -0.6176182
    856   -0.6168677
    857   -0.6161953
    858   -0.6156904
    859   -0.6143744
    860   -0.6141816
    861   -0.6138867
    862   -0.6129624
    863   -0.6121384
    864   -0.6111920
    865   -0.6108478
    866   -0.6100799
    867   -0.6092243
    868   -0.6080933
    869   -0.6076389
    870   -0.6071997
    871   -0.6067738
    872   -0.6067114
    873   -0.6056884
    874   -0.6053247
    875   -0.6047970
    876   -0.6044487
    877   -0.6037339
    878   -0.6027575
    879   -0.6024591
    880   -0.6021050
    881   -0.6019109
    882   -0.6015224
    883   -0.6007992
    884   -0.5996525
    885   -0.5994219
    886   -0.5989100
    887   -0.5974406
    888   -0.5963417
    889   -0.5957638
    890   -0.5955140
    891   -0.5950480
    892   -0.5946050
    893   -0.5935395
    894   -0.5932602
    895   -0.5925464
    896   -0.5922073
    897   -0.5914775
    898   -0.5909923
    899   -0.5907539
    900   -0.5898896
    901   -0.5895510
    902   -0.5888706
    903   -0.5883796
    904   -0.5874763
    905   -0.5873485
    906   -0.5866109
    907   -0.5864537
    908   -0.5856233
    909   -0.5849678
    910   -0.5845486
    911   -0.5837390
    912   -0.5834396
    913   -0.5830243
    914   -0.5825586
    915   -0.5819854
    916   -0.5810235
    917   -0.5802198
    918   -0.5799473
    919   -0.5795914
    920   -0.5793819
    921   -0.5789211
    922   -0.5784993
    923   -0.5781364
    924   -0.5771985
    925   -0.5765775
    926   -0.5754115
    927   -0.5753058
    928   -0.5749984
    929   -0.5741388
    930   -0.5732598
    931   -0.5728815
    932   -0.5726252
    933   -0.5721690
    934   -0.5721063
    935   -0.5717715
    936   -0.5714002
    937   -0.5712992
    938   -0.5705834
    939   -0.5704327
    940   -0.5699065
    941   -0.5694998
    942   -0.5686203
    943   -0.5684549
    944   -0.5677922
    945   -0.5668002
    946   -0.5653708
    947   -0.5651392
    948   -0.5650034
    949   -0.5646704
    950   -0.5641116
    951   -0.5629401
    952   -0.5628680
    953   -0.5623441
    954   -0.5620285
    955   -0.5616894
    956   -0.5606729
    957   -0.5604704
    958   -0.5598412
    959   -0.5593984
    960   -0.5592353
    961   -0.5586554
    962   -0.5580774
    963   -0.5568611
    964   -0.5565839
    965   -0.5560877
    966   -0.5555124
    967   -0.5547816
    968   -0.5540486
    969   -0.5536278
    970   -0.5533181
    971   -0.5530243
    972   -0.5522683
    973   -0.5520518
    974   -0.5516971
    975   -0.5513496
    976   -0.5513118
    977   -0.5509171
    978   -0.5506515
    979   -0.5499980
    980   -0.5492978
    981   -0.5491745
    982   -0.5481454
    983   -0.5467715
    984   -0.5466058
    985   -0.5462807
    986   -0.5460111
    987   -0.5456281
    988   -0.5454166
    989   -0.5448543
    990   -0.5443447
    991   -0.5438241
    992   -0.5434189
    993   -0.5427123
    994   -0.5424021
    995   -0.5422544
    996   -0.5417930
    997   -0.5414580
    998   -0.5413367
    999   -0.5405427
   1000   -0.5401571
   1001   -0.5393532
   1002   -0.5389894
   1003   -0.5379169
   1004   -0.5376967
   1005   -0.5370242
   1006   -0.5367526
   1007   -0.5361838
   1008   -0.5358635
   1009   -0.5357477
   1010   -0.5347769
   1011   -0.5345294
   1012   -0.5340066
   1013   -0.5333036
   1014   -0.5331222
   1015   -0.5327918
   1016   -0.5327270
   1017   -0.5305556
   1018   -0.5302574
   1019   -0.5297340
   1020   -0.5291592
   1021   -0.5289294
   1022   -0.5284353
   1023   -0.5278236
   1024   -0.5271486
   1025   -0.5270298
   1026   -0.5267524
   1027   -0.5259861
   1028   -0.5254297
   1029   -0.5248738
   1030   -0.5248075
   1031   -0.5245101
   1032   -0.5239018
   1033   -0.5234075
   1034   -0.5226479
   1035   -0.5221066
   1036   -0.5213481
   1037   -0.5211568
   1038   -0.5206339
   1039   -0.5200313
   1040   -0.5198030
   1041   -0.5190457
   1042   -0.5183402
   1043   -0.5180637
   1044   -0.5171548
   1045   -0.5170304
   1046   -0.5160866
   1047   -0.5145478
   1048   -0.5142339
   1049   -0.5139305
   1050   -0.5136697
   1051   -0.5132966
   1052   -0.5122231
   1053   -0.5121001
   1054   -0.5116344
   1055   -0.5110542
   1056   -0.5104884
   1057   -0.5099930
   1058   -0.5090847
   1059   -0.5080185
   1060   -0.5077009
   1061   -0.5075886
   1062   -0.5067482
   1063   -0.5053292
   1064   -0.5048940
   1065   -0.5042348
   1066   -0.5031067
   1067   -0.5028386
   1068   -0.5019011
   1069   -0.5017800
   1070   -0.5011535
   1071   -0.5002559
   1072   -0.4983946
   1073   -0.4980758
   1074   -0.4967978
   1075   -0.4965471
   1076   -0.4960304
   1077   -0.4950823
   1078   -0.4948246
   1079   -0.4943858
   1080   -0.4942781
   1081   -0.4938875
   1082   -0.4935791
   1083   -0.4925480
   1084   -0.4916416
   1085   -0.4903211
   1086   -0.4897932
   1087   -0.4892680
   1088   -0.4891565
   1089   -0.4889648
   1090   -0.4886141
   1091   -0.4882110
   1092   -0.4876903
   1093   -0.4873997
   1094   -0.4872163
   1095   -0.4858854
   1096   -0.4840807
   1097   -0.4836626
   1098   -0.4833607
   1099   -0.4830981
   1100   -0.4823094
   1101   -0.4817241
   1102   -0.4816467
   1103   -0.4811604
   1104   -0.4808987
   1105   -0.4806310
   1106   -0.4797272
   1107   -0.4787034
   1108   -0.4783097
   1109   -0.4775904
   1110   -0.4774228
   1111   -0.4766056
   1112   -0.4754588
   1113   -0.4752761
   1114   -0.4745384
   1115   -0.4743119
   1116   -0.4737519
   1117   -0.4730432
   1118   -0.4726942
   1119   -0.4716083
   1120   -0.4712406
   1121   -0.4698599
   1122   -0.4692411
   1123   -0.4683898
   1124   -0.4678642
   1125   -0.4676498
   1126   -0.4670570
   1127   -0.4660493
   1128   -0.4652798
   1129   -0.4645856
   1130   -0.4634759
   1131   -0.4630516
   1132   -0.4629259
   1133   -0.4621285
   1134   -0.4615159
   1135   -0.4606875
   1136   -0.4599677
   1137   -0.4597152
   1138   -0.4593714
   1139   -0.4589650
   1140   -0.4579303
   1141   -0.4568749
   1142   -0.4566992
   1143   -0.4565781
   1144   -0.4558957
   1145   -0.4548842
   1146   -0.4534571
   1147   -0.4527380
   1148   -0.4523573
   1149   -0.4514112
   1150   -0.4506600
   1151   -0.4500571
   1152   -0.4499863
   1153   -0.4493251
   1154   -0.4490829
   1155   -0.4480114
   1156   -0.4476968
   1157   -0.4470362
   1158   -0.4454128
   1159   -0.4444381
   1160   -0.4424514
   1161   -0.4421704
   1162   -0.4410925
   1163   -0.4392479
   1164   -0.4388977
   1165   -0.4380151
   1166   -0.4380007
   1167   -0.4363222
   1168   -0.4357117
   1169   -0.4351416
   1170   -0.4341183
   1171   -0.4338307
   1172   -0.4330487
   1173   -0.4320950
   1174   -0.4317995
   1175   -0.4316756
   1176   -0.4311590
   1177   -0.4300829
   1178   -0.4293435
   1179   -0.4280358
   1180   -0.4263340
   1181   -0.4243534
   1182   -0.4230215
   1183   -0.4228253
   1184   -0.4225722
   1185   -0.4222582
   1186   -0.4212803
   1187   -0.4197904
   1188   -0.4188356
   1189   -0.4173467
   1190   -0.4154638
   1191   -0.4151418
   1192   -0.4146073
   1193   -0.4136512
   1194   -0.4122405
   1195   -0.4109710
   1196   -0.4108660
   1197   -0.4102068
   1198   -0.4096099
   1199   -0.4090777
   1200   -0.4074406
   1201   -0.4065862
   1202   -0.4063571
   1203   -0.4061441
   1204   -0.4058315
   1205   -0.4053961
   1206   -0.4045656
   1207   -0.4040593
   1208   -0.4026513
   1209   -0.4019168
   1210   -0.4009740
   1211   -0.4008134
   1212   -0.4006154
   1213   -0.4000705
   1214   -0.3989440
   1215   -0.3951081
   1216   -0.3938593
   1217   -0.3931974
   1218   -0.3928250
   1219   -0.3919779
   1220   -0.3915712
   1221   -0.3882701
   1222   -0.3881479
   1223   -0.3868165
   1224   -0.3859174
   1225   -0.3826680
   1226   -0.3809636
   1227   -0.3774550
   1228   -0.3759629
   1229   -0.3756928
   1230   -0.3737290
   1231   -0.3727080
   1232   -0.3718264
   1233   -0.3701336
   1234   -0.3693332
   1235   -0.3655845
   1236   -0.3645763
   1237   -0.3629009
   1238   -0.3619215
   1239   -0.3612936
   1240   -0.3612647
   1241   -0.3601318
   1242   -0.3570072
   1243   -0.3500496
   1244   -0.3491326
   1245   -0.3489327
   1246   -0.3457505
   1247   -0.3431393
   1248   -0.3409857
   1249   -0.3379796
   1250   -0.3303665
   1251   -0.3251378
   1252   -0.3224925
   1253   -0.3064879
   1254   -0.3058042
   1255   -0.2890155
   1256   -0.2880142
   1257   -0.2700056
   1258   -0.2598251
   1259   -0.2544798

Tensor: I
  Ndim  = 1
  Size  = 2337
  Shape = (2337)

  Data:

      0    0.0902119
      1    0.0929966
      2    0.0940490
      3    0.0974502
      4    0.1003336
      5    0.1060060
      6    0.1068890
      7    0.1091010
      8    0.1097987
      9    0.1114652
     10    0.1165177
     11    0.1196932
     12    0.1211062
     13    0.1241195
     14    0.1248938
     15    0.1271810
     16    0.1273658
     17    0.1280735
     18    0.1292325
     19    0.1305179
     20    0.1316962
     21    0.1327388
     22    0.1335060
     23    0.1342869
     24    0.1379733
     25    0.1383095
     26    0.1391781
     27    0.1397230
     28    0.1404448
     29    0.1420592
     30    0.1448988
     31    0.1464194
     32    0.1467261
     33    0.1471112
     34    0.1478643
     35    0.1509846
     36    0.1524745
     37    0.1532646
     38    0.1538228
     39    0.1546981
     40    0.1572758
     41    0.1582561
     42    0.1590560
     43    0.1598817
     44    0.1606376
     45    0.1612817
     46    0.1629563
     47    0.1640447
     48    0.1651241
     49    0.1658213
     50    0.1666581
     51    0.1671767
     52    0.1677608
     53    0.1694052
     54    0.1698507
     55    0.1703923
     56    0.1715282
     57    0.1722560
     58    0.1726920
     59    0.1743109
     60    0.1765146
     61    0.1771277
     62    0.1787376
     63    0.1796143
     64    0.1808251
     65    0.1816812
     66    0.1830392
     67    0.1833994
     68    0.1841486
     69    0.1846360
     70    0.1853770
     71    0.1860416
     72    0.1868171
     73    0.1875955
     74    0.1893484
     75    0.1899174
     76    0.1902643
     77    0.1915274
     78    0.1929786
     79    0.1934295
     80    0.1942929
     81    0.1956156
     82    0.1960728
     83    0.1963148
     84    0.1968226
     85    0.1982251
     86    0.1988072
     87    0.1993090
     88    0.2005551
     89    0.2013012
     90    0.2015730
     91    0.2020221
     92    0.2028929
     93    0.2032139
     94    0.2034072
     95    0.2053115
     96    0.2063501
     97    0.2068658
     98    0.2079932
     99    0.2087423
    100    0.2098948
    101    0.2105611
    102    0.2122688
    103    0.2125842
    104    0.2138857
    105    0.2145052
    106    0.2148639
    107    0.2152462
    108    0.2162936
    109    0.2174397
    110    0.2179725
    111    0.2191265
    112    0.2209828
    113    0.2218455
    114    0.2222233
    115    0.2233177
    116    0.2249007
    117    0.2254711
    118    0.2261095
    119    0.2266488
    120    0.2274301
    121    0.2278518
    122    0.2288115
    123    0.2295269
    124    0.2304744
    125    0.2310574
    126    0.2316773
    127    0.2318754
    128    0.2328969
    129    0.2333070
    130    0.2342566
    131    0.2346567
    132    0.2363971
    133    0.2370975
    134    0.2393275
    135    0.2395566
    136    0.2402471
    137    0.2405087
    138    0.2411134
    139    0.2415353
    140    0.2427912
    141    0.2432448
    142    0.2441262
    143    0.2448124
    144    0.2454918
    145    0.2457380
    146    0.2466059
    147    0.2473704
    148    0.2480621
    149    0.2501103
    150    0.2503867
    151    0.2508133
    152    0.2518105
    153    0.2520693
    154    0.2525812
    155    0.2533898
    156    0.2537787
    157    0.2540819
    158    0.2553120
    159    0.2564674
    160    0.2565594
    161    0.2575492
    162    0.2580820
    163    0.2589853
    164    0.2596463
    165    0.2600488
    166    0.2608065
    167    0.2610313
    168    0.2621195
    169    0.2625083
    170    0.2631345
    171    0.2640105
    172    0.2654068
    173    0.2657778
    174    0.2658453
    175    0.2665084
    176    0.2668388
    177    0.2676509
    178    0.2677239
    179    0.2680564
    180    0.2682712
    181    0.2691820
    182    0.2698472
    183    0.2705945
    184    0.2706745
    185    0.2716120
    186    0.2718117
    187    0.2723911
    188    0.2727355
    189    0.2731495
    190    0.2739908
    191    0.2742744
    192    0.2750364
    193    0.2756464
    194    0.2758579
    195    0.2762742
    196    0.2769963
    197    0.2775853
    198    0.2784377
    199    0.2790263
    200    0.2792369
    201    0.2795780
    202    0.2799838
    203    0.2805375
    204    0.2809496
    205    0.2814494
    206    0.2815663
    207    0.2824568
    208    0.2829695
    209    0.2838757
    210    0.2844419
    211    0.2849838
    212    0.2852642
    213    0.2857301
    214    0.2861516
    215    0.2869855
    216    0.2871671
    217    0.2877896
    218    0.2878073
    219    0.2884849
    220    0.2889568
    221    0.2898465
    222    0.2901869
    223    0.2907571
    224    0.2911783
    225    0.2922450
    226    0.2929928
    227    0.2933682
    228    0.2935318
    229    0.2939980
    230    0.2944633
    231    0.2954122
    232    0.2959754
    233    0.2964409
    234    0.2969158
    235    0.2973137
    236    0.2977876
    237    0.2979449
    238    0.2980589
    239    0.2993059
    240    0.3005879
    241    0.3007925
    242    0.3013667
    243    0.3019136
    244    0.3026600
    245    0.3032046
    246    0.3041121
    247    0.3043711
    248    0.3046586
    249    0.3049057
    250    0.3049778
    251    0.3056019
    252    0.3059476
    253    0.3068648
    254    0.3074985
    255    0.3077983
    256    0.3087250
    257    0.3096726
    258    0.3100005
    259    0.3105841
    260    0.3109639
    261    0.3119474
    262    0.3125084
    263    0.3129710
    264    0.3139919
    265    0.3145181
    266    0.3146649
    267    0.3152619
    268    0.3157403
    269    0.3163612
    270    0.3165970
    271    0.3166750
    272    0.3174845
    273    0.3177556
    274    0.3182311
    275    0.3192188
    276    0.3201075
    277    0.3204350
    278    0.3210483
    279    0.3216733
    280    0.3219563
    281    0.3232131
    282    0.3234977
    283    0.3237670
    284    0.3247881
    285    0.3250309
    286    0.3253685
    287    0.3258518
    288    0.3263612
    289    0.3269512
    290    0.3276345
    291    0.3277880
    292    0.3286143
    293    0.3291643
    294    0.3301832
    295    0.3308628
    296    0.3312322
    297    0.3313416
    298    0.3327655
    299    0.3334742
    300    0.3342094
    301    0.3345259
    302    0.3354026
    303    0.3354495
    304    0.3356898
    305    0.3359187
    306    0.3363202
    307    0.3368782
    308    0.3373540
    309    0.3375884
    310    0.3379846
    311    0.3387523
    312    0.3389771
    313    0.3398204
    314    0.3401656
    315    0.3407422
    316    0.3412855
    317    0.3416840
    318    0.3421995
    319    0.3430209
    320    0.3436548
    321    0.3442032
    322    0.3444485
    323    0.3452393
    324    0.3459059
    325    0.3463603
    326    0.3465081
    327    0.3474099
    328    0.3477579
    329    0.3482681
    330    0.3484774
    331    0.3487722
    332    0.3493713
    333    0.3495023
    334    0.3497968
    335    0.3501878
    336    0.3505914
    337    0.3508830
    338    0.3520934
    339    0.3525976
    340    0.3530900
    341    0.3537112
    342    0.3538330
    343    0.3544234
    344    0.3547706
    345    0.3550331
    346    0.3557913
    347    0.3562548
    348    0.3570590
    349    0.3575022
    350    0.3580852
    351    0.3588409
    352    0.3592039
    353    0.3599834
    354    0.3606454
    355    0.3608571
    356    0.3617921
    357    0.3626357
    358    0.3631916
    359    0.3636539
    360    0.3645211
    361    0.3649698
    362    0.3654266
    363    0.3660362
    364    0.3662113
    365    0.3665356
    366    0.3671241
    367    0.3676869
    368    0.3681747
    369    0.3687075
    370    0.3692457
    371    0.3699301
    372    0.3705895
    373    0.3706863
    374    0.3712123
    375    0.3716459
    376    0.3726580
    377    0.3729725
    378    0.3739087
    379    0.3741848
    380    0.3748126
    381    0.3750060
    382    0.3758322
    383    0.3758769
    384    0.3764114
    385    0.3767291
    386    0.3772753
    387    0.3781718
    388    0.3787100
    389    0.3795008
    390    0.3799384
    391    0.3801729
    392    0.3812140
    393    0.3814029
    394    0.3821618
    395    0.3830478
    396    0.3842797
    397    0.3847643
    398    0.3847733
    399    0.3858464
    400    0.3862612
    401    0.3872976
    402    0.3874355
    403    0.3877028
    404    0.3883260
    405    0.3889437
    406    0.3901319
    407    0.3905324
    408    0.3906166
    409    0.3911320
    410    0.3918748
    411    0.3923144
    412    0.3928083
    413    0.3933344
    414    0.3940091
    415    0.3945182
    416    0.3953890
    417    0.3958422
    418    0.3964231
    419    0.3964398
    420    0.3969647
    421    0.3977255
    422    0.3986975
    423    0.3991869
    424    0.4001949
    425    0.4005771
    426    0.4010700
    427    0.4015807
    428    0.4017030
    429    0.4023894
    430    0.4030804
    431    0.4044867
    432    0.4048996
    433    0.4054570
    434    0.4061838
    435    0.4068194
    436    0.4072299
    437    0.4079616
    438    0.4081714
    439    0.4085715
    440    0.4094875
    441    0.4100914
    442    0.4103681
    443    0.4109158
    444    0.4116628
    445    0.4119650
    446    0.4122974
    447    0.4130083
    448    0.4135280
    449    0.4141512
    450    0.4142362
    451    0.4153880
    452    0.4157489
    453    0.4160525
    454    0.4170575
    455    0.4173867
    456    0.4178341
    457    0.4181831
    458    0.4189358
    459    0.4193811
    460    0.4204502
    461    0.4207208
    462    0.4217302
    463    0.4219573
    464    0.4223676
    465    0.4234569
    466    0.4238674
    467    0.4240503
    468    0.4249365
    469    0.4253788
    470    0.4254770
    471    0.4261990
    472    0.4266302
    473    0.4269519
    474    0.4272824
    475    0.4282624
    476    0.4285692
    477    0.4292912
    478    0.4294997
    479    0.4300572
    480    0.4311275
    481    0.4315355
    482    0.4319910
    483    0.4323504
    484    0.4329010
    485    0.4334215
    486    0.4346472
    487    0.4354191
    488    0.4355431
    489    0.4361594
    490    0.4367107
    491    0.4372019
    492    0.4385101
    493    0.4395287
    494    0.4400264
    495    0.4405464
    496    0.4411276
    497    0.4416956
    498    0.4428546
    499    0.4432900
    500    0.4439599
    501    0.4442441
    502    0.4447174
    503    0.4450955
    504    0.4456960
    505    0.4464254
    506    0.4468635
    507    0.4473357
    508    0.4482274
    509    0.4498748
    510    0.4499997
    511    0.4501974
    512    0.4507936
    513    0.4512502
    514    0.4515179
    515    0.4527500
    516    0.4535636
    517    0.4537516
    518    0.4540440
    519    0.4545169
    520    0.4560903
    521    0.4567327
    522    0.4577051
    523    0.4579624
    524    0.4583126
    525    0.4586429
    526    0.4601436
    527    0.4609329
    528    0.4620020
    529    0.4626960
    530    0.4636170
    531    0.4646751
    532    0.4648499
    533    0.4668286
    534    0.4670708
    535    0.4677060
    536    0.4682778
    537    0.4699118
    538    0.4705034
    539    0.4716145
    540    0.4721031
    541    0.4723145
    542    0.4737146
    543    0.4739979
    544    0.4763932
    545    0.4764267
    546    0.4780642
    547    0.4781183
    548    0.4781588
    549    0.4794959
    550    0.4808420
    551    0.4814849
    552    0.4823780
    553    0.4832294
    554    0.4842351
    555    0.4847261
    556    0.4853082
    557    0.4861256
    558    0.4870903
    559    0.4875023
    560    0.4885078
    561    0.4890246
    562    0.4910535
    563    0.4915953
    564    0.4928101
    565    0.4932413
    566    0.4944550
    567    0.4951188
    568    0.4977727
    569    0.4993884
    570    0.4996977
    571    0.5009622
    572    0.5018983
    573    0.5030543
    574    0.5044396
    575    0.5050147
    576    0.5067012
    577    0.5081800
    578    0.5084802
    579    0.5098343
    580    0.5113787
    581    0.5120861
    582    0.5131233
    583    0.5133772
    584    0.5138903
    585    0.5141327
    586    0.5160737
    587    0.5168929
    588    0.5199113
    589    0.5211923
    590    0.5212937
    591    0.5222797
    592    0.5238919
    593    0.5243164
    594    0.5261306
    595    0.5265431
    596    0.5271598
    597    0.5298072
    598    0.5301813
    599    0.5314554
    600    0.5322630
    601    0.5323776
    602    0.5336080
    603    0.5360969
    604    0.5380958
    605    0.5385000
    606    0.5392752
    607    0.5414160
    608    0.5419941
    609    0.5428493
    610    0.5440857
    611    0.5449501
    612    0.5459259
    613    0.5462697
    614    0.5472403
    615    0.5487907
    616    0.5493387
    617    0.5510381
    618    0.5513313
    619    0.5519661
    620    0.5530470
    621    0.5543685
    622    0.5546207
    623    0.5557361
    624    0.5559766
    625    0.5566871
    626    0.5575268
    627    0.5597388
    628    0.5606234
    629    0.5626249
    630    0.5645298
    631    0.5655538
    632    0.5667493
    633    0.5680360
    634    0.5683184
    635    0.5704191
    636    0.5706130
    637    0.5715873
    638    0.5724304
    639    0.5731191
    640    0.5747834
    641    0.5752815
    642    0.5764305
    643    0.5772142
    644    0.5783353
    645    0.5800833
    646    0.5810936
    647    0.5826343
    648    0.5845287
    649    0.5857546
    650    0.5864067
    651    0.5867517
    652    0.5875486
    653    0.5893579
    654    0.5898835
    655    0.5911643
    656    0.5920829
    657    0.5936650
    658    0.5941443
    659    0.5955983
    660    0.5974716
    661    0.5995758
    662    0.6005916
    663    0.6017253
    664    0.6022447
    665    0.6034193
    666    0.6042056
    667    0.6062119
    668    0.6074347
    669    0.6081783
    670    0.6110992
    671    0.6137443
    672    0.6144465
    673    0.6146979
    674    0.6166191
    675    0.6176695
    676    0.6181253
    677    0.6193483
    678    0.6206568
    679    0.6251325
    680    0.6266102
    681    0.6279240
    682    0.6287753
    683    0.6303680
    684    0.6313411
    685    0.6323047
    686    0.6339852
    687    0.6359815
    688    0.6369180
    689    0.6390460
    690    0.6399847
    691    0.6419424
    692    0.6443711
    693    0.6456519
    694    0.6458201
    695    0.6466406
    696    0.6484187
    697    0.6496507
    698    0.6522959
    699    0.6539037
    700    0.6551259
    701    0.6574753
    702    0.6581526
    703    0.6582339
    704    0.6593711
    705    0.6613577
    706    0.6619278
    707    0.6626530
    708    0.6631267
    709    0.6646573
    710    0.6669376
    711    0.6674863
    712    0.6678961
    713    0.6698898
    714    0.6742784
    715    0.6754235
    716    0.6756871
    717    0.6772888
    718    0.6793781
    719    0.6800108
    720    0.6819168
    721    0.6827358
    722    0.6836705
    723    0.6844690
    724    0.6860046
    725    0.6878482
    726    0.6887641
    727    0.6893762
    728    0.6914900
    729    0.6921173
    730    0.6931801
    731    0.6937190
    732    0.6953161
    733    0.6958341
    734    0.6967393
    735    0.6989787
    736    0.7006491
    737    0.7009475
    738    0.7020821
    739    0.7035114
    740    0.7056116
    741    0.7068801
    742    0.7112059
    743    0.7131283
    744    0.7148119
    745    0.7156962
    746    0.7163370
    747    0.7173774
    748    0.7184493
    749    0.7195143
    750    0.7204307
    751    0.7208770
    752    0.7211463
    753    0.7223378
    754    0.7247581
    755    0.7259160
    756    0.7272325
    757    0.7273188
    758    0.7282077
    759    0.7287830
    760    0.7301516
    761    0.7312307
    762    0.7317112
    763    0.7324513
    764    0.7334426
    765    0.7345435
    766    0.7353664
    767    0.7371995
    768    0.7379932
    769    0.7386592
    770    0.7395075
    771    0.7405124
    772    0.7409907
    773    0.7422673
    774    0.7428409
    775    0.7429105
    776    0.7436646
    777    0.7440708
    778    0.7458089
    779    0.7462742
    780    0.7480520
    781    0.7484285
    782    0.7490736
    783    0.7497056
    784    0.7506244
    785    0.7512217
    786    0.7523639
    787    0.7536128
    788    0.7536657
    789    0.7560722
    790    0.7563508
    791    0.7575340
    792    0.7577926
    793    0.7585616
    794    0.7589796
    795    0.7597687
    796    0.7605868
    797    0.7613210
    798    0.7617567
    799    0.7626011
    800    0.7633395
    801    0.7636984
    802    0.7644477
    803    0.7646184
    804    0.7654493
    805    0.7657490
    806    0.7660595
    807    0.7667214
    808    0.7669194
    809    0.7682824
    810    0.7698158
    811    0.7707518
    812    0.7712720
    813    0.7719492
    814    0.7725410
    815    0.7726462
    816    0.7735113
    817    0.7736385
    818    0.7745532
    819    0.7757342
    820    0.7759678
    821    0.7766567
    822    0.7772690
    823    0.7781599
    824    0.7785963
    825    0.7787026
    826    0.7791380
    827    0.7808617
    828    0.7823535
    829    0.7829683
    830    0.7832244
    831    0.7841845
    832    0.7847091
    833    0.7850177
    834    0.7858897
    835    0.7868082
    836    0.7876869
    837    0.7880176
    838    0.7887664
    839    0.7893089
    840    0.7898037
    841    0.7901354
    842    0.7905574
    843    0.7908085
    844    0.7923609
    845    0.7928315
    846    0.7935199
    847    0.7941787
    848    0.7950165
    849    0.7957816
    850    0.7961429
    851    0.7972587
    852    0.7975863
    853    0.7980239
    854    0.7987526
    855    0.7992560
    856    0.7997749
    857    0.8009827
    858    0.8014325
    859    0.8025176
    860    0.8032235
    861    0.8036314
    862    0.8039858
    863    0.8043721
    864    0.8046439
    865    0.8060037
    866    0.8064545
    867    0.8071949
    868    0.8079083
    869    0.8087043
    870    0.8087362
    871    0.8091136
    872    0.8097512
    873    0.8104305
    874    0.8109959
    875    0.8112859
    876    0.8121684
    877    0.8129808
    878    0.8136301
    879    0.8146232
    880    0.8148295
    881    0.8164158
    882    0.8166721
    883    0.8170579
    884    0.8178900
    885    0.8188016
    886    0.8196558
    887    0.8206694
    888    0.8215034
    889    0.8218305
    890    0.8228744
    891    0.8232347
    892    0.8246603
    893    0.8259099
    894    0.8262746
    895    0.8272846
    896    0.8279001
    897    0.8281192
    898    0.8293096
    899    0.8299231
    900    0.8303668
    901    0.8315379
    902    0.8316512
    903    0.8321126
    904    0.8329243
    905    0.8331988
    906    0.8336452
    907    0.8345010
    908    0.8351926
    909    0.8362422
    910    0.8369042
    911    0.8374594
    912    0.8383470
    913    0.8392671
    914    0.8395673
    915    0.8400684
    916    0.8402438
    917    0.8413291
    918    0.8414962
    919    0.8425092
    920    0.8428761
    921    0.8443088
    922    0.8446970
    923    0.8463119
    924    0.8468854
    925    0.8472424
    926    0.8476551
    927    0.8478462
    928    0.8493712
    929    0.8498076
    930    0.8505232
    931    0.8509228
    932    0.8513482
    933    0.8524880
    934    0.8526700
    935    0.8538666
    936    0.8539388
    937    0.8542752
    938    0.8551171
    939    0.8560020
    940    0.8569252
    941    0.8571605
    942    0.8579454
    943    0.8584441
    944    0.8588831
    945    0.8594540
    946    0.8597959
    947    0.8601999
    948    0.8612993
    949    0.8614146
    950    0.8622081
    951    0.8631309
    952    0.8634118
    953    0.8644276
    954    0.8647580
    955    0.8656489
    956    0.8667385
    957    0.8674935
    958    0.8682481
    959    0.8683692
    960    0.8692995
    961    0.8695428
    962    0.8707267
    963    0.8710544
    964    0.8718211
    965    0.8728467
    966    0.8732955
    967    0.8736276
    968    0.8746870
    969    0.8751911
    970    0.8762851
    971    0.8769556
    972    0.8771835
    973    0.8780123
    974    0.8783633
    975    0.8790098
    976    0.8799443
    977    0.8811721
    978    0.8817581
    979    0.8820812
    980    0.8822224
    981    0.8827577
    982    0.8828883
    983    0.8839300
    984    0.8841357
    985    0.8848427
    986    0.8861056
    987    0.8864716
    988    0.8867235
    989    0.8872371
    990    0.8879925
    991    0.8880703
    992    0.8895341
    993    0.8900677
    994    0.8910237
    995    0.8920373
    996    0.8930645
    997    0.8934362
    998    0.8936262
    999    0.8939726
   1000    0.8945151
   1001    0.8948631
   1002    0.8960018
   1003    0.8964555
   1004    0.8969946
   1005    0.8977123
   1006    0.8981679
   1007    0.8986926
   1008    0.9000034
   1009    0.9010491
   1010    0.9014128
   1011    0.9022278
   1012    0.9028380
   1013    0.9039441
   1014    0.9045731
   1015    0.9048298
   1016    0.9058931
   1017    0.9066958
   1018    0.9068175
   1019    0.9075516
   1020    0.9087066
   1021    0.9092422
   1022    0.9100825
   1023    0.9103749
   1024    0.9107234
   1025    0.9115422
   1026    0.9119086
   1027    0.9123280
   1028    0.9131482
   1029    0.9143828
   1030    0.9153212
   1031    0.9155881
   1032    0.9163020
   1033    0.9167623
   1034    0.9171095
   1035    0.9184049
   1036    0.9190694
   1037    0.9194572
   1038    0.9199967
   1039    0.9207917
   1040    0.9212686
   1041    0.9214263
   1042    0.9219826
   1043    0.9224214
   1044    0.9226030
   1045    0.9239160
   1046    0.9244408
   1047    0.9246998
   1048    0.9253370
   1049    0.9256200
   1050    0.9262153
   1051    0.9265694
   1052    0.9275544
   1053    0.9281257
   1054    0.9289501
   1055    0.9297669
   1056    0.9301800
   1057    0.9311149
   1058    0.9312828
   1059    0.9323735
   1060    0.9328286
   1061    0.9341002
   1062    0.9346931
   1063    0.9353688
   1064    0.9356042
   1065    0.9357187
   1066    0.9360977
   1067    0.9363810
   1068    0.9374891
   1069    0.9379413
   1070    0.9386452
   1071    0.9393383
   1072    0.9396371
   1073    0.9399918
   1074    0.9406627
   1075    0.9415090
   1076    0.9424334
   1077    0.9426261
   1078    0.9437873
   1079    0.9439555
   1080    0.9443395
   1081    0.9449920
   1082    0.9457896
   1083    0.9465608
   1084    0.9470962
   1085    0.9476713
   1086    0.9483910
   1087    0.9490931
   1088    0.9495168
   1089    0.9504358
   1090    0.9505902
   1091    0.9511202
   1092    0.9515371
   1093    0.9525296
   1094    0.9535100
   1095    0.9537559
   1096    0.9543457
   1097    0.9549521
   1098    0.9552659
   1099    0.9560385
   1100    0.9561847
   1101    0.9571872
   1102    0.9578003
   1103    0.9581753
   1104    0.9584335
   1105    0.9587223
   1106    0.9600185
   1107    0.9608259
   1108    0.9614436
   1109    0.9615111
   1110    0.9620528
   1111    0.9633502
   1112    0.9636990
   1113    0.9639406
   1114    0.9647198
   1115    0.9656429
   1116    0.9664637
   1117    0.9666934
   1118    0.9675156
   1119    0.9676852
   1120    0.9681816
   1121    0.9690229
   1122    0.9691888
   1123    0.9697088
   1124    0.9703046
   1125    0.9705447
   1126    0.9712325
   1127    0.9720147
   1128    0.9734968
   1129    0.9739647
   1130    0.9740973
   1131    0.9746134
   1132    0.9750048
   1133    0.9758196
   1134    0.9764339
   1135    0.9771885
   1136    0.9776917
   1137    0.9779675
   1138    0.9787168
   1139    0.9795205
   1140    0.9809411
   1141    0.9819405
   1142    0.9823462
   1143    0.9836237
   1144    0.9842886
   1145    0.9846320
   1146    0.9848465
   1147    0.9852017
   1148    0.9856295
   1149    0.9864323
   1150    0.9875037
   1151    0.9881493
   1152    0.9888278
   1153    0.9892064
   1154    0.9897905
   1155    0.9902743
   1156    0.9908477
   1157    0.9916448
   1158    0.9924901
   1159    0.9935273
   1160    0.9940619
   1161    0.9950324
   1162    0.9956420
   1163    0.9966230
   1164    0.9973699
   1165    0.9975242
   1166    0.9982610
   1167    0.9991187
   1168    0.9996109
   1169    0.9999886
   1170    1.0007027
   1171    1.0015475
   1172    1.0017103
   1173    1.0027583
   1174    1.0036059
   1175    1.0036878
   1176    1.0057294
   1177    1.0061457
   1178    1.0069493
   1179    1.0071956
   1180    1.0074081
   1181    1.0081236
   1182    1.0088367
   1183    1.0096163
   1184    1.0098368
   1185    1.0107218
   1186    1.0114589
   1187    1.0119701
   1188    1.0127261
   1189    1.0134088
   1190    1.0137661
   1191    1.0143033
   1192    1.0150879
   1193    1.0159706
   1194    1.0168822
   1195    1.0170812
   1196    1.0185978
   1197    1.0188184
   1198    1.0197126
   1199    1.0202595
   1200    1.0216933
   1201    1.0222080
   1202    1.0229787
   1203    1.0238285
   1204    1.0245613
   1205    1.0253491
   1206    1.0260861
   1207    1.0272524
   1208    1.0278088
   1209    1.0286224
   1210    1.0297257
   1211    1.0306079
   1212    1.0308829
   1213    1.0313228
   1214    1.0319074
   1215    1.0325887
   1216    1.0331239
   1217    1.0337072
   1218    1.0359686
   1219    1.0364213
   1220    1.0366145
   1221    1.0391347
   1222    1.0398841
   1223    1.0403306
   1224    1.0410136
   1225    1.0413553
   1226    1.0421687
   1227    1.0429173
   1228    1.0434081
   1229    1.0443763
   1230    1.0451948
   1231    1.0455327
   1232    1.0466704
   1233    1.0482255
   1234    1.0493402
   1235    1.0504046
   1236    1.0518254
   1237    1.0522071
   1238    1.0526931
   1239    1.0531680
   1240    1.0535645
   1241    1.0546736
   1242    1.0552075
   1243    1.0561988
   1244    1.0580029
   1245    1.0583112
   1246    1.0593159
   1247    1.0598792
   1248    1.0606132
   1249    1.0616550
   1250    1.0619600
   1251    1.0630300
   1252    1.0631548
   1253    1.0643813
   1254    1.0656289
   1255    1.0658466
   1256    1.0673425
   1257    1.0678059
   1258    1.0682641
   1259    1.0684033
   1260    1.0690434
   1261    1.0697285
   1262    1.0697988
   1263    1.0717059
   1264    1.0726311
   1265    1.0734391
   1266    1.0740111
   1267    1.0750253
   1268    1.0761226
   1269    1.0774359
   1270    1.0780938
   1271    1.0786260
   1272    1.0788167
   1273    1.0791556
   1274    1.0813163
   1275    1.0821438
   1276    1.0824554
   1277    1.0826269
   1278    1.0832167
   1279    1.0841756
   1280    1.0854657
   1281    1.0862457
   1282    1.0873557
   1283    1.0877744
   1284    1.0882468
   1285    1.0897829
   1286    1.0903632
   1287    1.0908808
   1288    1.0912389
   1289    1.0916204
   1290    1.0923217
   1291    1.0935492
   1292    1.0943746
   1293    1.0947300
   1294    1.0951559
   1295    1.0953822
   1296    1.0961930
   1297    1.0967687
   1298    1.0971307
   1299    1.0983692
   1300    1.0984938
   1301    1.0997170
   1302    1.1005034
   1303    1.1016236
   1304    1.1018281
   1305    1.1027588
   1306    1.1030833
   1307    1.1043098
   1308    1.1047045
   1309    1.1059564
   1310    1.1061919
   1311    1.1070810
   1312    1.1072614
   1313    1.1075244
   1314    1.1079933
   1315    1.1098248
   1316    1.1102942
   1317    1.1111408
   1318    1.1112011
   1319    1.1121934
   1320    1.1129214
   1321    1.1133823
   1322    1.1136452
   1323    1.1147444
   1324    1.1150028
   1325    1.1157355
   1326    1.1166228
   1327    1.1180995
   1328    1.1187945
   1329    1.1193779
   1330    1.1198786
   1331    1.1203363
   1332    1.1207511
   1333    1.1217649
   1334    1.1224969
   1335    1.1234565
   1336    1.1243756
   1337    1.1247767
   1338    1.1250525
   1339    1.1263492
   1340    1.1267389
   1341    1.1272896
   1342    1.1277922
   1343    1.1281803
   1344    1.1284884
   1345    1.1292686
   1346    1.1299406
   1347    1.1308811
   1348    1.1310282
   1349    1.1318405
   1350    1.1322947
   1351    1.1336674
   1352    1.1342738
   1353    1.1347381
   1354    1.1353880
   1355    1.1360248
   1356    1.1366033
   1357    1.1383372
   1358    1.1391707
   1359    1.1397701
   1360    1.1399756
   1361    1.1404460
   1362    1.1407047
   1363    1.1414453
   1364    1.1420448
   1365    1.1423396
   1366    1.1432923
   1367    1.1439364
   1368    1.1441820
   1369    1.1447076
   1370    1.1460632
   1371    1.1466899
   1372    1.1473047
   1373    1.1474033
   1374    1.1478894
   1375    1.1484270
   1376    1.1485587
   1377    1.1486846
   1378    1.1503728
   1379    1.1504233
   1380    1.1517902
   1381    1.1520348
   1382    1.1532717
   1383    1.1534358
   1384    1.1540355
   1385    1.1544424
   1386    1.1546188
   1387    1.1556389
   1388    1.1560488
   1389    1.1568233
   1390    1.1573351
   1391    1.1576051
   1392    1.1577529
   1393    1.1584115
   1394    1.1593347
   1395    1.1601485
   1396    1.1609776
   1397    1.1615640
   1398    1.1619067
   1399    1.1635093
   1400    1.1636980
   1401    1.1647396
   1402    1.1649996
   1403    1.1652660
   1404    1.1663924
   1405    1.1666732
   1406    1.1669494
   1407    1.1681365
   1408    1.1691773
   1409    1.1692122
   1410    1.1697935
   1411    1.1700023
   1412    1.1703440
   1413    1.1712860
   1414    1.1718578
   1415    1.1723774
   1416    1.1732442
   1417    1.1733723
   1418    1.1738252
   1419    1.1744825
   1420    1.1747127
   1421    1.1750397
   1422    1.1758150
   1423    1.1761472
   1424    1.1768429
   1425    1.1777181
   1426    1.1778841
   1427    1.1782989
   1428    1.1791443
   1429    1.1798840
   1430    1.1802026
   1431    1.1814523
   1432    1.1824417
   1433    1.1827311
   1434    1.1835228
   1435    1.1835803
   1436    1.1849601
   1437    1.1851657
   1438    1.1860077
   1439    1.1864641
   1440    1.1871063
   1441    1.1881442
   1442    1.1887512
   1443    1.1891739
   1444    1.1898448
   1445    1.1904038
   1446    1.1912615
   1447    1.1914806
   1448    1.1919580
   1449    1.1924729
   1450    1.1929675
   1451    1.1930426
   1452    1.1942670
   1453    1.1949254
   1454    1.1957276
   1455    1.1959811
   1456    1.1964205
   1457    1.1969008
   1458    1.1975254
   1459    1.1978526
   1460    1.1984581
   1461    1.1992916
   1462    1.1997159
   1463    1.2004391
   1464    1.2012724
   1465    1.2019741
   1466    1.2022696
   1467    1.2024391
   1468    1.2033818
   1469    1.2036678
   1470    1.2041812
   1471    1.2044164
   1472    1.2048692
   1473    1.2052709
   1474    1.2065761
   1475    1.2070421
   1476    1.2072935
   1477    1.2077866
   1478    1.2083042
   1479    1.2087976
   1480    1.2094945
   1481    1.2105080
   1482    1.2108984
   1483    1.2115193
   1484    1.2118677
   1485    1.2120808
   1486    1.2122584
   1487    1.2127321
   1488    1.2138614
   1489    1.2143045
   1490    1.2151820
   1491    1.2155589
   1492    1.2162781
   1493    1.2166528
   1494    1.2169383
   1495    1.2172405
   1496    1.2181214
   1497    1.2190802
   1498    1.2196366
   1499    1.2205756
   1500    1.2211410
   1501    1.2216647
   1502    1.2221514
   1503    1.2224344
   1504    1.2228021
   1505    1.2236964
   1506    1.2242439
   1507    1.2250865
   1508    1.2252617
   1509    1.2253197
   1510    1.2266231
   1511    1.2267814
   1512    1.2279116
   1513    1.2287327
   1514    1.2288912
   1515    1.2296974
   1516    1.2303328
   1517    1.2311928
   1518    1.2313578
   1519    1.2322578
   1520    1.2326873
   1521    1.2330214
   1522    1.2334531
   1523    1.2336087
   1524    1.2345863
   1525    1.2351320
   1526    1.2355195
   1527    1.2365596
   1528    1.2370456
   1529    1.2379836
   1530    1.2384010
   1531    1.2389039
   1532    1.2394334
   1533    1.2397976
   1534    1.2405181
   1535    1.2411014
   1536    1.2417504
   1537    1.2424079
   1538    1.2434783
   1539    1.2439713
   1540    1.2441679
   1541    1.2452004
   1542    1.2459408
   1543    1.2460868
   1544    1.2468943
   1545    1.2472514
   1546    1.2481722
   1547    1.2483682
   1548    1.2486633
   1549    1.2493571
   1550    1.2500737
   1551    1.2506052
   1552    1.2509741
   1553    1.2519761
   1554    1.2529528
   1555    1.2531257
   1556    1.2540629
   1557    1.2543240
   1558    1.2545790
   1559    1.2550728
   1560    1.2564049
   1561    1.2567050
   1562    1.2573430
   1563    1.2581458
   1564    1.2588654
   1565    1.2593639
   1566    1.2596174
   1567    1.2600534
   1568    1.2611150
   1569    1.2614409
   1570    1.2617340
   1571    1.2631783
   1572    1.2637883
   1573    1.2640195
   1574    1.2648825
   1575    1.2658629
   1576    1.2662699
   1577    1.2665975
   1578    1.2680973
   1579    1.2681984
   1580    1.2693503
   1581    1.2704551
   1582    1.2714589
   1583    1.2721124
   1584    1.2725929
   1585    1.2729496
   1586    1.2737200
   1587    1.2739977
   1588    1.2747461
   1589    1.2753897
   1590    1.2759919
   1591    1.2768635
   1592    1.2776602
   1593    1.2787710
   1594    1.2791510
   1595    1.2797882
   1596    1.2809351
   1597    1.2814074
   1598    1.2818085
   1599    1.2821351
   1600    1.2826865
   1601    1.2838212
   1602    1.2844932
   1603    1.2845936
   1604    1.2862203
   1605    1.2866070
   1606    1.2872060
   1607    1.2878307
   1608    1.2883418
   1609    1.2891333
   1610    1.2899176
   1611    1.2903424
   1612    1.2914747
   1613    1.2919165
   1614    1.2926261
   1615    1.2937268
   1616    1.2943926
   1617    1.2945688
   1618    1.2961439
   1619    1.2973017
   1620    1.2977636
   1621    1.2979522
   1622    1.2983382
   1623    1.2990693
   1624    1.2998168
   1625    1.3001387
   1626    1.3016499
   1627    1.3019740
   1628    1.3023497
   1629    1.3033127
   1630    1.3034614
   1631    1.3043248
   1632    1.3048437
   1633    1.3053789
   1634    1.3065406
   1635    1.3075057
   1636    1.3078730
   1637    1.3084976
   1638    1.3095836
   1639    1.3103550
   1640    1.3109770
   1641    1.3118186
   1642    1.3127981
   1643    1.3134211
   1644    1.3135432
   1645    1.3141819
   1646    1.3151882
   1647    1.3157537
   1648    1.3159100
   1649    1.3170024
   1650    1.3176129
   1651    1.3180233
   1652    1.3199098
   1653    1.3209433
   1654    1.3212218
   1655    1.3218703
   1656    1.3225749
   1657    1.3233145
   1658    1.3238035
   1659    1.3243776
   1660    1.3259155
   1661    1.3262767
   1662    1.3279757
   1663    1.3286500
   1664    1.3290555
   1665    1.3299164
   1666    1.3304188
   1667    1.3310200
   1668    1.3317810
   1669    1.3323313
   1670    1.3328314
   1671    1.3330175
   1672    1.3342565
   1673    1.3351059
   1674    1.3362386
   1675    1.3365576
   1676    1.3373311
   1677    1.3376817
   1678    1.3393530
   1679    1.3395095
   1680    1.3405435
   1681    1.3417093
   1682    1.3419916
   1683    1.3428446
   1684    1.3438839
   1685    1.3443323
   1686    1.3449685
   1687    1.3454530
   1688    1.3464091
   1689    1.3473051
   1690    1.3478832
   1691    1.3495543
   1692    1.3502394
   1693    1.3510780
   1694    1.3526558
   1695    1.3530606
   1696    1.3541787
   1697    1.3551994
   1698    1.3561264
   1699    1.3566899
   1700    1.3577011
   1701    1.3580155
   1702    1.3591601
   1703    1.3598192
   1704    1.3608980
   1705    1.3621279
   1706    1.3626590
   1707    1.3629796
   1708    1.3636002
   1709    1.3650646
   1710    1.3661660
   1711    1.3673485
   1712    1.3680503
   1713    1.3690464
   1714    1.3707192
   1715    1.3713004
   1716    1.3716031
   1717    1.3723986
   1718    1.3730754
   1719    1.3741730
   1720    1.3751703
   1721    1.3758791
   1722    1.3765923
   1723    1.3766972
   1724    1.3782690
   1725    1.3786911
   1726    1.3795756
   1727    1.3802135
   1728    1.3807650
   1729    1.3815448
   1730    1.3824440
   1731    1.3836102
   1732    1.3848653
   1733    1.3857060
   1734    1.3860874
   1735    1.3874942
   1736    1.3887166
   1737    1.3890440
   1738    1.3898793
   1739    1.3903614
   1740    1.3910111
   1741    1.3922238
   1742    1.3929767
   1743    1.3936228
   1744    1.3937565
   1745    1.3952771
   1746    1.3959205
   1747    1.3966930
   1748    1.3974971
   1749    1.3980514
   1750    1.3993885
   1751    1.3997258
   1752    1.4004171
   1753    1.4021808
   1754    1.4024814
   1755    1.4027831
   1756    1.4045303
   1757    1.4052605
   1758    1.4060331
   1759    1.4063308
   1760    1.4071507
   1761    1.4078387
   1762    1.4093652
   1763    1.4104380
   1764    1.4109833
   1765    1.4122698
   1766    1.4133046
   1767    1.4146428
   1768    1.4147265
   1769    1.4156279
   1770    1.4173252
   1771    1.4183108
   1772    1.4186297
   1773    1.4192986
   1774    1.4205691
   1775    1.4213786
   1776    1.4219353
   1777    1.4238163
   1778    1.4244770
   1779    1.4254190
   1780    1.4268352
   1781    1.4274215
   1782    1.4275098
   1783    1.4283638
   1784    1.4294200
   1785    1.4305587
   1786    1.4311129
   1787    1.4317547
   1788    1.4323213
   1789    1.4337476
   1790    1.4357124
   1791    1.4371786
   1792    1.4380998
   1793    1.4388090
   1794    1.4392941
   1795    1.4404852
   1796    1.4408350
   1797    1.4414302
   1798    1.4425474
   1799    1.4435528
   1800    1.4441286
   1801    1.4457002
   1802    1.4457453
   1803    1.4463562
   1804    1.4469072
   1805    1.4474674
   1806    1.4496163
   1807    1.4501834
   1808    1.4514193
   1809    1.4521064
   1810    1.4532716
   1811    1.4537048
   1812    1.4545082
   1813    1.4551137
   1814    1.4566483
   1815    1.4587325
   1816    1.4593013
   1817    1.4597943
   1818    1.4600524
   1819    1.4622409
   1820    1.4622726
   1821    1.4628067
   1822    1.4642292
   1823    1.4654450
   1824    1.4667391
   1825    1.4676563
   1826    1.4685158
   1827    1.4689381
   1828    1.4705985
   1829    1.4712554
   1830    1.4714321
   1831    1.4726498
   1832    1.4738057
   1833    1.4752845
   1834    1.4758618
   1835    1.4764118
   1836    1.4780203
   1837    1.4788037
   1838    1.4801456
   1839    1.4810523
   1840    1.4814507
   1841    1.4829558
   1842    1.4840894
   1843    1.4852989
   1844    1.4866021
   1845    1.4869544
   1846    1.4873239
   1847    1.4881024
   1848    1.4890021
   1849    1.4898470
   1850    1.4909182
   1851    1.4918751
   1852    1.4927281
   1853    1.4937238
   1854    1.4954584
   1855    1.4972418
   1856    1.4989358
   1857    1.4991370
   1858    1.4998899
   1859    1.5012434
   1860    1.5018353
   1861    1.5028512
   1862    1.5034432
   1863    1.5042320
   1864    1.5052707
   1865    1.5075057
   1866    1.5080675
   1867    1.5100289
   1868    1.5108259
   1869    1.5125098
   1870    1.5135384
   1871    1.5146744
   1872    1.5159083
   1873    1.5165733
   1874    1.5172293
   1875    1.5183173
   1876    1.5186557
   1877    1.5207890
   1878    1.5210488
   1879    1.5229128
   1880    1.5231159
   1881    1.5241949
   1882    1.5252656
   1883    1.5258699
   1884    1.5268904
   1885    1.5277475
   1886    1.5281956
   1887    1.5297356
   1888    1.5310233
   1889    1.5313393
   1890    1.5325350
   1891    1.5331693
   1892    1.5352721
   1893    1.5363630
   1894    1.5374650
   1895    1.5380680
   1896    1.5391465
   1897    1.5397846
   1898    1.5410576
   1899    1.5428206
   1900    1.5431294
   1901    1.5441782
   1902    1.5448378
   1903    1.5465872
   1904    1.5470710
   1905    1.5478359
   1906    1.5483433
   1907    1.5510111
   1908    1.5525571
   1909    1.5536711
   1910    1.5563673
   1911    1.5578500
   1912    1.5585714
   1913    1.5607325
   1914    1.5624215
   1915    1.5627736
   1916    1.5633990
   1917    1.5642039
   1918    1.5651303
   1919    1.5660170
   1920    1.5672453
   1921    1.5686839
   1922    1.5693016
   1923    1.5696650
   1924    1.5717212
   1925    1.5733782
   1926    1.5735866
   1927    1.5753605
   1928    1.5768212
   1929    1.5769937
   1930    1.5783117
   1931    1.5796571
   1932    1.5812582
   1933    1.5816335
   1934    1.5828020
   1935    1.5849802
   1936    1.5861454
   1937    1.5869164
   1938    1.5882933
   1939    1.5889408
   1940    1.5901524
   1941    1.5904606
   1942    1.5909334
   1943    1.5923040
   1944    1.5938971
   1945    1.5952692
   1946    1.5953445
   1947    1.5959893
   1948    1.5968269
   1949    1.5979358
   1950    1.5991968
   1951    1.6006001
   1952    1.6010767
   1953    1.6040726
   1954    1.6049615
   1955    1.6054175
   1956    1.6066586
   1957    1.6077270
   1958    1.6085470
   1959    1.6098616
   1960    1.6104947
   1961    1.6111620
   1962    1.6118367
   1963    1.6137665
   1964    1.6146168
   1965    1.6151078
   1966    1.6163700
   1967    1.6192730
   1968    1.6195426
   1969    1.6201227
   1970    1.6220629
   1971    1.6238188
   1972    1.6245775
   1973    1.6252976
   1974    1.6271366
   1975    1.6277642
   1976    1.6298927
   1977    1.6302200
   1978    1.6313924
   1979    1.6333654
   1980    1.6337725
   1981    1.6357322
   1982    1.6369637
   1983    1.6385396
   1984    1.6408623
   1985    1.6414018
   1986    1.6433600
   1987    1.6443669
   1988    1.6465152
   1989    1.6476140
   1990    1.6482579
   1991    1.6488311
   1992    1.6514681
   1993    1.6529187
   1994    1.6537811
   1995    1.6559332
   1996    1.6573515
   1997    1.6582237
   1998    1.6600344
   1999    1.6603297
   2000    1.6619483
   2001    1.6624008
   2002    1.6644800
   2003    1.6661780
   2004    1.6669225
   2005    1.6682431
   2006    1.6703230
   2007    1.6708734
   2008    1.6728707
   2009    1.6736845
   2010    1.6749314
   2011    1.6753715
   2012    1.6758670
   2013    1.6762836
   2014    1.6773246
   2015    1.6789706
   2016    1.6804657
   2017    1.6827111
   2018    1.6829834
   2019    1.6841488
   2020    1.6855290
   2021    1.6861407
   2022    1.6872696
   2023    1.6883558
   2024    1.6904237
   2025    1.6928947
   2026    1.6937801
   2027    1.6952269
   2028    1.6958352
   2029    1.6961188
   2030    1.6981345
   2031    1.7003437
   2032    1.7019659
   2033    1.7025393
   2034    1.7029473
   2035    1.7043082
   2036    1.7070969
   2037    1.7077632
   2038    1.7091343
   2039    1.7107889
   2040    1.7122986
   2041    1.7159775
   2042    1.7170541
   2043    1.7171862
   2044    1.7191186
   2045    1.7196496
   2046    1.7216435
   2047    1.7232810
   2048    1.7256352
   2049    1.7276397
   2050    1.7284546
   2051    1.7297608
   2052    1.7312609
   2053    1.7316937
   2054    1.7347487
   2055    1.7370000
   2056    1.7381054
   2057    1.7398775
   2058    1.7404712
   2059    1.7438488
   2060    1.7441584
   2061    1.7457490
   2062    1.7476416
   2063    1.7485187
   2064    1.7506130
   2065    1.7528614
   2066    1.7544288
   2067    1.7561032
   2068    1.7566381
   2069    1.7597326
   2070    1.7606593
   2071    1.7639889
   2072    1.7654362
   2073    1.7673332
   2074    1.7687444
   2075    1.7699633
   2076    1.7719551
   2077    1.7736641
   2078    1.7753785
   2079    1.7784174
   2080    1.7787056
   2081    1.7809107
   2082    1.7816278
   2083    1.7822614
   2084    1.7830882
   2085    1.7862927
   2086    1.7865712
   2087    1.7877158
   2088    1.7912625
   2089    1.7923313
   2090    1.7933057
   2091    1.7949931
   2092    1.7958928
   2093    1.7978232
   2094    1.7982146
   2095    1.8008693
   2096    1.8028786
   2097    1.8030034
   2098    1.8044975
   2099    1.8047418
   2100    1.8064521
   2101    1.8080301
   2102    1.8088403
   2103    1.8117577
   2104    1.8140569
   2105    1.8155740
   2106    1.8186933
   2107    1.8202159
   2108    1.8240747
   2109    1.8247178
   2110    1.8264759
   2111    1.8301792
   2112    1.8341876
   2113    1.8342300
   2114    1.8374934
   2115    1.8433811
   2116    1.8446584
   2117    1.8458442
   2118    1.8478019
   2119    1.8499811
   2120    1.8515938
   2121    1.8527167
   2122    1.8567117
   2123    1.8593745
   2124    1.8608800
   2125    1.8616330
   2126    1.8640140
   2127    1.8645456
   2128    1.8666708
   2129    1.8711229
   2130    1.8742110
   2131    1.8752095
   2132    1.8771511
   2133    1.8778151
   2134    1.8814540
   2135    1.8820737
   2136    1.8846829
   2137    1.8864864
   2138    1.8898231
   2139    1.8902966
   2140    1.8955103
   2141    1.8966319
   2142    1.8995860
   2143    1.8999933
   2144    1.9025176
   2145    1.9048352
   2146    1.9069540
   2147    1.9096786
   2148    1.9109481
   2149    1.9116808
   2150    1.9156828
   2151    1.9174720
   2152    1.9201212
   2153    1.9210459
   2154    1.9226199
   2155    1.9253254
   2156    1.9292642
   2157    1.9306063
   2158    1.9335546
   2159    1.9366986
   2160    1.9409508
   2161    1.9434840
   2162    1.9458744
   2163    1.9467232
   2164    1.9501417
   2165    1.9531220
   2166    1.9547275
   2167    1.9558586
   2168    1.9584288
   2169    1.9614359
   2170    1.9640259
   2171    1.9675568
   2172    1.9698867
   2173    1.9713339
   2174    1.9740884
   2175    1.9769874
   2176    1.9794952
   2177    1.9823267
   2178    1.9844643
   2179    1.9856951
   2180    1.9888462
   2181    1.9908188
   2182    1.9929792
   2183    1.9973247
   2184    2.0006626
   2185    2.0011042
   2186    2.0064859
   2187    2.0081143
   2188    2.0102526
   2189    2.0116749
   2190    2.0135698
   2191    2.0148448
   2192    2.0164966
   2193    2.0223772
   2194    2.0230075
   2195    2.0260474
   2196    2.0276737
   2197    2.0325896
   2198    2.0340053
   2199    2.0366578
   2200    2.0449363
   2201    2.0466983
   2202    2.0499452
   2203    2.0524039
   2204    2.0562821
   2205    2.0576009
   2206    2.0576348
   2207    2.0618109
   2208    2.0641320
   2209    2.0672720
   2210    2.0691574
   2211    2.0705072
   2212    2.0726651
   2213    2.0745130
   2214    2.0799726
   2215    2.0810542
   2216    2.0829010
   2217    2.0842348
   2218    2.0865001
   2219    2.0927938
   2220    2.0961390
   2221    2.0971531
   2222    2.0996067
   2223    2.0999952
   2224    2.1034294
   2225    2.1073652
   2226    2.1161143
   2227    2.1166746
   2228    2.1200426
   2229    2.1233976
   2230    2.1270890
   2231    2.1292400
   2232    2.1307872
   2233    2.1332754
   2234    2.1369964
   2235    2.1420610
   2236    2.1441198
   2237    2.1448528
   2238    2.1481638
   2239    2.1530265
   2240    2.1567433
   2241    2.1642070
   2242    2.1701348
   2243    2.1771196
   2244    2.1808662
   2245    2.1888667
   2246    2.1899659
   2247    2.1951153
   2248    2.1962416
   2249    2.1976302
   2250    2.1987705
   2251    2.2036107
   2252    2.2065216
   2253    2.2186753
   2254    2.2190844
   2255    2.2217858
   2256    2.2314366
   2257    2.2326462
   2258    2.2349711
   2259    2.2355151
   2260    2.2367899
   2261    2.2374707
   2262    2.2407051
   2263    2.2438744
   2264    2.2465569
   2265    2.2551499
   2266    2.2637909
   2267    2.2660062
   2268    2.2697030
   2269    2.2712500
   2270    2.2766089
   2271    2.2836890
   2272    2.2878762
   2273    2.2886074
   2274    2.2921997
   2275    2.2968274
   2276    2.2992962
   2277    2.3018618
   2278    2.3045347
   2279    2.3092149
   2280    2.3108155
   2281    2.3186399
   2282    2.3281074
   2283    2.3298006
   2284    2.3371397
   2285    2.3399333
   2286    2.3488113
   2287    2.3533910
   2288    2.3636892
   2289    2.3699182
   2290    2.3701585
   2291    2.3750369
   2292    2.3790796
   2293    2.3809023
   2294    2.3975174
   2295    2.4026632
   2296    2.4042686
   2297    2.4066992
   2298    2.4085404
   2299    2.4135602
   2300    2.4136824
   2301    2.4180623
   2302    2.4205782
   2303    2.4249584
   2304    2.4262415
   2305    2.4299255
   2306    2.4334718
   2307    2.4362417
   2308    2.4392585
   2309    2.4400491
   2310    2.4420432
   2311    2.4441805
   2312    2.4470709
   2313    2.4502168
   2314    2.4571010
   2315    2.4642384
   2316    2.4652355
   2317    2.4671713
   2318    2.4689940
   2319    2.4777778
   2320    2.4803452
   2321    2.4826633
   2322    2.4894227
   2323    2.4930879
   2324    2.4963175
   2325    2.5058181
   2326    2.5071000
   2327    2.5196032
   2328    2.5209536
   2329    2.5279312
   2330    2.5302502
   2331    2.5390169
   2332    2.5391010
   2333    2.5440769
   2334    2.5461658
   2335    2.5482191
   2336    2.5656640

"I love it when a plan comes together!"
        --LTC John "Hannibal" Smith

==> End RHF <==

*** Stopped at: Mon Jun 19 22:31:10 PDT 2017 on fire-12-04 ***
*** Runtime: 373.601 [s] ***

